<svg width="21" height="22" viewBox="0 0 21 22" fill="none" xmlns="http://www.w3.org/2000/svg">
<path d="M10.5 0.957764C4.70132 0.957764 0 5.68747 0 11.5212C0 16.7928 3.83918 21.1623 8.85974 21.9578V14.5753H6.19247V11.5212H8.85974V9.1938C8.85974 6.54424 10.4275 5.08318 12.8249 5.08318C13.9737 5.08318 15.1772 5.28919 15.1772 5.28919V7.88698H13.8498C12.5477 7.88698 12.1403 8.70256 12.1403 9.53821V11.519H15.0501L14.5849 14.5732H12.1403V21.9557C17.1608 21.1644 21 16.7939 21 11.5212C21 5.68747 16.2987 0.957764 10.5 0.957764Z" fill="#FE5758"/>
</svg>
