<svg width="70" height="40" viewBox="0 0 70 40" fill="none" xmlns="http://www.w3.org/2000/svg">
<path d="M68.4756 24.4249C67.3978 22.8706 66.1714 21.4273 64.8892 20.0396L63.4211 18.6888L55.6351 18.7998C55.6351 18.7998 52.5318 18.7998 52.4017 16.5608C52.2716 14.3219 54.0555 13.8593 54.0555 13.8593L57.0659 12.8231L50.9151 7.16093C50.1346 6.58732 49.3356 6.0322 48.5179 5.5141C48.5179 5.55111 48.5365 5.58811 48.5551 5.62512C48.8524 6.05071 49.1498 6.4948 49.3913 6.93889C49.7444 7.58652 50.0603 8.25266 50.3019 8.9558C50.8222 10.4176 51.1009 11.9904 51.1009 13.6187C51.1009 17.4305 47.6631 23.7773 44.244 29.1619C44.244 29.1804 44.2254 29.1989 44.2068 29.2174C44.151 29.2914 44.1139 29.3655 44.0581 29.4395C43.3892 30.4757 42.7388 31.4749 42.0884 32.4186C49.0011 32.4186 55.8952 32.4186 62.8079 32.4186C64.2016 32.4186 65.6139 32.4186 66.9147 31.9745C68.2155 31.5304 69.4605 30.6052 69.8507 29.2729C70.371 27.5891 69.4419 25.8127 68.4384 24.3694L68.4756 24.4249Z" fill="#5B97FF"/>
<path d="M25.3455 29.0139C24.9367 28.3663 24.5279 27.7186 24.1376 27.071C21.2016 22.2045 18.6 16.968 18.6 13.6558C18.6 11.8424 18.9531 10.1216 19.5849 8.54874C19.5849 8.53024 19.6035 8.49323 19.6221 8.47473C19.7522 8.14166 19.9194 7.79009 20.0866 7.47552C20.6255 6.4023 21.3131 5.4216 22.0936 4.53342C22.0936 3.95981 21.4803 3.38619 20.9043 3.57123C20.5326 3.16414 20.1424 2.75706 19.7707 2.34998C19.6035 2.18344 19.4363 1.99841 19.2133 1.9429C18.9345 1.88738 18.6186 2.01691 18.3956 1.86888C18.024 1.62833 18.2284 0.925189 17.8382 0.740151C17.7081 0.666136 17.5408 0.703143 17.3922 0.740151C16.686 0.851173 15.887 1.05471 15.5711 1.68384C15.1809 2.4425 15.7012 3.40469 15.3853 4.18185C14.9207 5.29208 13.2854 5.19956 12.3935 5.99522C12.2634 6.10624 12.1705 6.25427 12.1147 6.42081C11.9847 6.8649 12.3749 7.16096 11.7245 7.346C10.7396 7.62355 9.62467 7.49403 8.73271 6.99442C8.49113 6.8649 7.33902 5.84719 7.32043 6.56884C7.32043 7.01293 7.6735 7.43852 7.76641 7.8641C7.87791 8.3452 8.02657 9.36291 7.59917 9.71448C7.41335 9.86251 7.19036 9.91802 6.96736 9.99203C6.63288 10.0846 6.31698 10.1771 5.98249 10.2696C5.53651 10.3991 5.0162 10.5101 4.62596 10.2696C4.38439 10.1216 4.25431 9.86251 4.08707 9.64046C3.91983 9.41842 3.65967 9.21488 3.39951 9.25188C3.08361 9.28889 2.8792 9.62196 2.61905 9.78849C2.28456 10.0105 1.85716 9.99203 1.46693 9.95503C1.0767 9.93652 0.649297 9.91802 0.314811 10.1216C-0.521404 10.6767 0.574967 11.3058 0.556384 11.9349C0.556384 12.5085 0.500636 12.8416 1.11386 13.0452C1.82 13.2857 2.5633 13.2672 3.26944 13.4892C3.51101 13.5633 3.734 13.6743 3.95699 13.7853C4.71888 14.1924 5.36927 14.803 6.00107 15.4136C6.14973 15.5617 6.29839 15.7097 6.35414 15.8947C6.37272 15.9688 6.37272 16.0613 6.37272 16.1353C6.37272 16.2648 6.33556 16.4128 6.33556 16.5424C6.29839 17.8006 8.1009 18.2262 8.67696 19.3364C8.88137 19.7435 8.91853 20.1876 8.89995 20.6502C8.89995 20.8167 8.88137 20.9833 8.86279 21.1498C8.75129 22.4636 8.62121 23.7773 8.49113 25.0726C8.49113 25.1651 8.49113 25.2576 8.45397 25.3502C8.36106 26.2198 8.19381 27.145 7.85933 27.9777C7.71067 28.3293 7.26469 28.8289 7.41335 29.1989C7.54342 29.5135 7.98941 29.569 8.06374 29.9206C8.1009 30.1056 9.10436 30.4017 9.2716 30.4757C9.73617 30.6607 10.2193 30.8273 10.721 30.9568C11.2599 31.1048 11.7617 31.3824 12.3377 31.4564C12.7651 31.5119 12.9509 31.4564 13.2483 31.1789C14.1031 30.3832 14.8278 31.3824 15.6826 31.771C16.5002 32.141 18.4514 33.0292 19.2319 32.141C19.492 31.845 19.3619 31.5859 19.3248 31.2529C19.3062 30.9013 19.3805 30.5312 19.5292 30.2167C19.8079 29.5875 20.3654 29.0879 20.9786 28.7919C21.9077 28.3478 23.0227 28.3108 23.989 28.6993C24.6208 28.9584 25.1783 29.384 25.7915 29.68C25.7357 29.5875 25.6614 29.495 25.6057 29.384C25.5313 29.273 25.457 29.1619 25.4013 29.0509L25.3455 29.0139Z" fill="#5B97FF"/>
<path d="M47.7746 8.97433C47.5145 8.27118 47.2171 7.60505 46.8641 6.95742C46.6039 6.49482 46.3252 6.05073 46.0279 5.64365C45.9164 5.49562 45.8049 5.32908 45.6748 5.18105C45.3589 4.79248 45.0244 4.4039 44.6713 4.05233C42.1813 1.53581 38.7249 0 34.8597 0C30.753 0 27.1108 1.73935 24.6022 4.53342C23.8031 5.4216 23.1341 6.4023 22.5952 7.47552C22.428 7.80859 22.2793 8.14166 22.1307 8.47473C22.1307 8.49323 22.1121 8.53024 22.0935 8.54874C21.4617 10.1216 21.1086 11.8424 21.1086 13.6558C21.1086 16.968 23.7102 22.2045 26.6462 27.071C27.0365 27.7371 27.4453 28.3848 27.8541 29.0139C27.9284 29.1249 28.0028 29.236 28.0585 29.347C28.1143 29.4395 28.1886 29.532 28.2443 29.643C31.5892 34.8426 34.8226 39.0429 34.8226 39.0429C34.8226 39.0429 36.8481 36.4339 39.3381 32.7887C39.4125 32.6777 39.4868 32.5666 39.5611 32.4556C40.1929 31.5119 40.8619 30.5127 41.5309 29.4765C41.5866 29.4025 41.6238 29.3285 41.6795 29.2545C41.6795 29.236 41.6981 29.2174 41.7167 29.1989C45.1545 23.7958 48.5737 17.4676 48.5737 13.6558C48.5737 12.0089 48.2949 10.4361 47.7746 8.99283V8.97433ZM34.8412 17.6526C31.7007 17.6526 29.1549 15.1176 29.1549 11.9904C29.1549 8.8633 31.7007 6.32829 34.8412 6.32829C37.9816 6.32829 40.5274 8.8633 40.5274 11.9904C40.5274 15.1176 37.9816 17.6526 34.8412 17.6526Z" fill="#FE5758"/>
</svg>
